<?xml version="1.0" encoding="utf-8"?>
<!-- Generator: Adobe Illustrator 25.3.1, SVG Export Plug-In . SVG Version: 6.00 Build 0)  -->
<svg version="1.1" id="Calque_1" xmlns="http://www.w3.org/2000/svg" xmlns:xlink="http://www.w3.org/1999/xlink" x="0px" y="0px"
	 viewBox="0 0 37 69" style="enable-background:new 0 0 37 69;" xml:space="preserve">
<style type="text/css">
	.st0{fill:none;stroke:#252755;stroke-width:3.3691;stroke-miterlimit:33.6914;}
</style>
<g id="Calque_2_1_">
	<g id="Calque_1-2">
		<path class="st0" d="M35.7,67.8L2.4,34.5L35.7,1.2"/>
	</g>
</g>
</svg>
